reading_files
…
movies <- split(movies, movies$Year)

write <- function(i){write_csv(i, paste0("X:/Agency_Files/Outcomes/Risk_Eval_Air_Mod/_Air_Risk_Evaluation/R/R_Camp/TidyTuesday/reading_files/new_movie_data", i$Year[1], ".csv"))}

lapply(movies, write)

## $`2006`
## # A tibble: 44 x 12
##     Rank Title Genre Description Director Actors  Year `Runtime (Minut~ Rating
##    <dbl> <chr> <chr> <chr>       <chr>    <chr>  <dbl>            <dbl>  <dbl>
##  1    65 The ~ Dram~ Two stage ~ Christo~ Chris~  2006              130    8.5
##  2    79 Pira~ Acti~ Jack Sparr~ Gore Ve~ Johnn~  2006              151    7.3
##  3   100 The ~ Crim~ An underco~ Martin ~ Leona~  2006              151    8.5
##  4   114 300   Acti~ King Leoni~ Zack Sn~ Gerar~  2006              117    7.7
##  5   165 Casi~ Acti~ Armed with~ Martin ~ Danie~  2006              144    8  
##  6   222 Cars  Anim~ A hot-shot~ John La~ Owen ~  2006              117    7.1
##  7   231 Pan'~ Dram~ In the fal~ Guiller~ Ivana~  2006              118    8.2
##  8   233 Apoc~ Acti~ As the May~ Mel Gib~ Gerar~  2006              139    7.8
##  9   247 Chil~ Dram~ In 2027, i~ Alfonso~ Julia~  2006              109    7.9
## 10   298 The ~ Come~ A smart bu~ David F~ Anne ~  2006              109    6.8
## # ... with 34 more rows, and 3 more variables: Votes <dbl>, `Revenue
## #   (Millions)` <dbl>, Metascore <dbl>
## 
## $`2007`
## # A tibble: 53 x 12
##     Rank Title Genre Description Director Actors  Year `Runtime (Minut~ Rating
##    <dbl> <chr> <chr> <chr>       <chr>    <chr>  <dbl>            <dbl>  <dbl>
##  1    40 5/25~ Come~ "Alienated~ Patrick~ John ~  2007              113    7.1
##  2    76 Pira~ Acti~ "Captain B~ Gore Ve~ Johnn~  2007              169    7.1
##  3   137 No C~ Crim~ "Violence ~ Ethan C~ Tommy~  2007              122    8.1
##  4   149 Supe~ Come~ "Two co-de~ Greg Mo~ Micha~  2007              113    7.6
##  5   156 Alie~ Acti~ "Warring a~ Colin S~ Reiko~  2007               94    4.7
##  6   160 Hot ~ Acti~ "Exception~ Edgar W~ Simon~  2007              121    7.9
##  7   198 Into~ Adve~ "After gra~ Sean Pe~ Emile~  2007              148    8.1
##  8   213 Tran~ Acti~ "An ancien~ Michael~ Shia ~  2007              144    7.1
##  9   278 Zodi~ Crim~ "In the la~ David F~ Jake ~  2007              157    7.7
## 10   283 Deat~ Thri~ "Two separ~ Quentin~ Kurt ~  2007              113    7.1
## # ... with 43 more rows, and 3 more variables: Votes <dbl>, `Revenue
## #   (Millions)` <dbl>, Metascore <dbl>
## 
## $`2008`
## # A tibble: 52 x 12
##     Rank Title Genre Description Director Actors  Year `Runtime (Minut~ Rating
##    <dbl> <chr> <chr> <chr>       <chr>    <chr>  <dbl>            <dbl>  <dbl>
##  1    55 The ~ Acti~ "When the ~ Christo~ Chris~  2008              152    9  
##  2   129 Mamm~ Come~ "The story~ Phyllid~ Meryl~  2008              108    6.4
##  3   166 Twil~ Dram~ "A teenage~ Catheri~ Krist~  2008              122    5.2
##  4   178 Trop~ Acti~ "Through a~ Ben Sti~ Ben S~  2008              107    7  
##  5   204 Iron~ Acti~ "After bei~ Jon Fav~ Rober~  2008              126    7.9
##  6   304 The ~ Come~ "After Pla~ Fred Wo~ Anna ~  2008               97    5.5
##  7   323 Rock~ Acti~ "In London~ Guy Rit~ Gerar~  2008              114    7.3
##  8   361 Step~ Come~ "Two aimle~ Adam Mc~ Will ~  2008               98    6.9
##  9   366 Slum~ Drama "A Mumbai ~ Danny B~ Dev P~  2008              120    8  
## 10   374 Want~ Acti~ "A frustra~ Timur B~ Angel~  2008              110    6.7
## # ... with 42 more rows, and 3 more variables: Votes <dbl>, `Revenue
## #   (Millions)` <dbl>, Metascore <dbl>
## 
## $`2009`
## # A tibble: 51 x 12
##     Rank Title Genre Description Director Actors  Year `Runtime (Minut~ Rating
##    <dbl> <chr> <chr> <chr>       <chr>    <chr>  <dbl>            <dbl>  <dbl>
##  1    78 Ingl~ Adve~ In Nazi-oc~ Quentin~ Brad ~  2009              153    8.3
##  2    88 Avat~ Acti~ A parapleg~ James C~ Sam W~  2009              162    7.8
##  3   141 Star~ Acti~ The brash ~ J.J. Ab~ Chris~  2009              127    8  
##  4   148 Watc~ Acti~ In 1985 wh~ Zack Sn~ Jacki~  2009              162    7.6
##  5   252 Kyno~ Dram~ Three teen~ Yorgos ~ Chris~  2009               94    7.3
##  6   256 The ~ Come~ Three budd~ Todd Ph~ Zach ~  2009              100    7.8
##  7   269 X-Me~ Acti~ A look at ~ Gavin H~ Hugh ~  2009              107    6.7
##  8   282 Sher~ Acti~ Detective ~ Guy Rit~ Rober~  2009              128    7.6
##  9   311 The ~ Biog~ The story ~ John Le~ Quint~  2009              129    7.7
## 10   341 Fast~ Acti~ Brian O'Co~ Justin ~ Vin D~  2009              107    6.6
## # ... with 41 more rows, and 3 more variables: Votes <dbl>, `Revenue
## #   (Millions)` <dbl>, Metascore <dbl>
## 
## $`2010`
## # A tibble: 60 x 12
##     Rank Title Genre Description Director Actors  Year `Runtime (Minut~ Rating
##    <dbl> <chr> <chr> <chr>       <chr>    <chr>  <dbl>            <dbl>  <dbl>
##  1    81 Ince~ Acti~ "A thief, ~ Christo~ Leona~  2010              148    8.8
##  2   139 Shut~ Myst~ "In 1954, ~ Martin ~ Leona~  2010              138    8.1
##  3   142 Diar~ Come~ "The adven~ Thor Fr~ Zacha~  2010               94    6.2
##  4   159 Scot~ Acti~ "Scott Pil~ Edgar W~ Micha~  2010              112    7.5
##  5   220 Kick~ Acti~ "Dave Lize~ Matthew~ Aaron~  2010              117    7.7
##  6   228 Pred~ Acti~ "A group o~ Nimrd ~ Adrie~  2010              107    6.4
##  7   245 Perc~ Adve~ "A teenage~ Chris C~ Logan~  2010              118    5.9
##  8   262 Blac~ Dram~ "A committ~ Darren ~ Natal~  2010              108    8  
##  9   305 She'~ Come~ "An averag~ Jim Fie~ Jay B~  2010              104    6.4
## 10   325 The ~ Biog~ "Harvard s~ David F~ Jesse~  2010              120    7.7
## # ... with 50 more rows, and 3 more variables: Votes <dbl>, `Revenue
## #   (Millions)` <dbl>, Metascore <dbl>
## 
## $`2011`
## # A tibble: 63 x 12
##     Rank Title Genre Description Director Actors  Year `Runtime (Minut~ Rating
##    <dbl> <chr> <chr> <chr>       <chr>    <chr>  <dbl>            <dbl>  <dbl>
##  1    46 Pira~ Acti~ "Jack Spar~ Rob Mar~ Johnn~  2011              136    6.7
##  2    93 The ~ Drama "An aspiri~ Tate Ta~ Emma ~  2011              146    8.1
##  3   102 Thor  Acti~ "The power~ Kenneth~ Chris~  2011              115    7  
##  4   115 Harr~ Adve~ "Harry, Ro~ David Y~ Danie~  2011              130    8.1
##  5   158 Craz~ Come~ "A middle-~ Glenn F~ Steve~  2011              118    7.4
##  6   189 Drive Crim~ "A mysteri~ Nicolas~ Ryan ~  2011              100    7.8
##  7   195 Warr~ Acti~ "The young~ Gavin O~ Tom H~  2011              140    8.2
##  8   196 Capt~ Acti~ "Steve Rog~ Joe Joh~ Chris~  2011              124    6.9
##  9   206 X: F~ Acti~ "In 1962, ~ Matthew~ James~  2011              132    7.8
## 10   209 Brid~ Come~ "Competiti~ Paul Fe~ Krist~  2011              125    6.8
## # ... with 53 more rows, and 3 more variables: Votes <dbl>, `Revenue
## #   (Millions)` <dbl>, Metascore <dbl>
## 
## $`2012`
## # A tibble: 64 x 12
##     Rank Title Genre Description Director Actors  Year `Runtime (Minut~ Rating
##    <dbl> <chr> <chr> <chr>       <chr>    <chr>  <dbl>            <dbl>  <dbl>
##  1     2 Prom~ Adve~ Following ~ Ridley ~ Noomi~  2012              124    7  
##  2    77 The ~ Acti~ Earth's mi~ Joss Wh~ Rober~  2012              143    8.1
##  3   125 The ~ Acti~ Eight year~ Christo~ Chris~  2012              164    8.5
##  4   136 The ~ Crim~ A motorcyc~ Derek C~ Ryan ~  2012              140    7.3
##  5   145 Djan~ Dram~ With the h~ Quentin~ Jamie~  2012              165    8.4
##  6   152 The ~ Adve~ Katniss Ev~ Gary Ro~ Jenni~  2012              142    7.2
##  7   212 Spri~ Drama Four colle~ Harmony~ Vanes~  2012               94    5.3
##  8   236 The ~ Dram~ An introve~ Stephen~ Logan~  2012              102    8  
##  9   246 Les ~ Dram~ In 19th-ce~ Tom Hoo~ Hugh ~  2012              158    7.6
## 10   257 Batt~ Acti~ A fleet of~ Peter B~ Alexa~  2012              131    5.8
## # ... with 54 more rows, and 3 more variables: Votes <dbl>, `Revenue
## #   (Millions)` <dbl>, Metascore <dbl>
## 
## $`2013`
## # A tibble: 91 x 12
##     Rank Title Genre Description Director Actors  Year `Runtime (Minut~ Rating
##    <dbl> <chr> <chr> <chr>       <chr>    <chr>  <dbl>            <dbl>  <dbl>
##  1    83 The ~ Biog~ Based on t~ Martin ~ Leona~  2013              180    8.2
##  2    91 Pris~ Crim~ When Kelle~ Denis V~ Hugh ~  2013              153    8.1
##  3   112 12 Y~ Biog~ In the ant~ Steve M~ Chiwe~  2013              134    8.1
##  4   135 Furi~ Acti~ Hobbs has ~ Justin ~ Vin D~  2013              130    7.1
##  5   138 The ~ Dram~ A writer a~ Baz Luh~ Leona~  2013              143    7.3
##  6   157 Paci~ Acti~ As a war b~ Guiller~ Idris~  2013              131    7  
##  7   174 Her   Dram~ A lonely w~ Spike J~ Joaqu~  2013              126    8  
##  8   175 Froz~ Anim~ When the n~ Chris B~ Krist~  2013              102    7.5
##  9   214 Old ~ Acti~ Obsessed w~ Spike L~ Josh ~  2013              104    5.8
## 10   215 Thor~ Acti~ When Dr. J~ Alan Ta~ Chris~  2013              112    7  
## # ... with 81 more rows, and 3 more variables: Votes <dbl>, `Revenue
## #   (Millions)` <dbl>, Metascore <dbl>
## 
## $`2014`
## # A tibble: 98 x 12
##     Rank Title Genre Description Director Actors  Year `Runtime (Minut~ Rating
##    <dbl> <chr> <chr> <chr>       <chr>    <chr>  <dbl>            <dbl>  <dbl>
##  1     1 Guar~ Acti~ A group of~ James G~ Chris~  2014              121    8.1
##  2    37 Inte~ Adve~ A team of ~ Christo~ Matth~  2014              169    8.6
##  3    54 John~ Acti~ An ex-hitm~ Chad St~ Keanu~  2014              101    7.2
##  4    66 King~ Acti~ A spy orga~ Matthew~ Colin~  2014              129    7.7
##  5    84 Gone~ Crim~ With his w~ David F~ Ben A~  2014              149    8.1
##  6   110 Ex M~ Dram~ A young pr~ Alex Ga~ Alici~  2014              108    7.7
##  7   122 Dive~ Adve~ In a world~ Neil Bu~ Shail~  2014              139    6.7
##  8   127 Tran~ Acti~ Autobots m~ Michael~ Mark ~  2014              165    5.7
##  9   132 Into~ Adve~ A witch ta~ Rob Mar~ Anna ~  2014              125    6  
## 10   134 Whip~ Dram~ A promisin~ Damien ~ Miles~  2014              107    8.5
## # ... with 88 more rows, and 3 more variables: Votes <dbl>, `Revenue
## #   (Millions)` <dbl>, Metascore <dbl>
## 
## $`2015`
## # A tibble: 127 x 12
##     Rank Title Genre Description Director Actors  Year `Runtime (Minut~ Rating
##    <dbl> <chr> <chr> <chr>       <chr>    <chr>  <dbl>            <dbl>  <dbl>
##  1    27 Bahu~ Acti~ In ancient~ S.S. Ra~ Prabh~  2015              159    8.3
##  2    51 Star~ Acti~ Three deca~ J.J. Ab~ Daisy~  2015              136    8.1
##  3    64 Fift~ Dram~ Literature~ Sam Tay~ Dakot~  2015              125    4.1
##  4    68 Mad ~ Acti~ A woman re~ George ~ Tom H~  2015              120    8.1
##  5    85 Furi~ Acti~ Deckard Sh~ James W~ Vin D~  2015              137    7.2
##  6    86 Jura~ Acti~ A new them~ Colin T~ Chris~  2015              124    7  
##  7    89 The ~ Crim~ In the dea~ Quentin~ Samue~  2015              187    7.8
##  8    95 Aven~ Acti~ When Tony ~ Joss Wh~ Rober~  2015              141    7.4
##  9   101 Lege~ Biog~ Identical ~ Brian H~ Tom H~  2015              132    7  
## 10   103 The ~ Adve~ An astrona~ Ridley ~ Matt ~  2015              144    8  
## # ... with 117 more rows, and 3 more variables: Votes <dbl>, `Revenue
## #   (Millions)` <dbl>, Metascore <dbl>
## 
## $`2016`
## # A tibble: 297 x 12
##     Rank Title Genre Description Director Actors  Year `Runtime (Minut~ Rating
##    <dbl> <chr> <chr> <chr>       <chr>    <chr>  <dbl>            <dbl>  <dbl>
##  1     3 Split Horr~ "Three gir~ M. Nigh~ James~  2016              117    7.3
##  2     4 Sing  Anim~ "In a city~ Christo~ Matth~  2016              108    7.2
##  3     5 Suic~ Acti~ "A secret ~ David A~ Will ~  2016              123    6.2
##  4     6 The ~ Acti~ "European ~ Yimou Z~ Matt ~  2016              103    6.1
##  5     7 La L~ Come~ "A jazz pi~ Damien ~ Ryan ~  2016              128    8.3
##  6     8 Mind~ Come~ "A has-bee~ Sean Fo~ Essie~  2016               89    6.4
##  7     9 The ~ Acti~ "A true-li~ James G~ Charl~  2016              141    7.1
##  8    10 Pass~ Adve~ "A spacecr~ Morten ~ Jenni~  2016              116    7  
##  9    11 Fant~ Adve~ "The adven~ David Y~ Eddie~  2016              133    7.5
## 10    12 Hidd~ Biog~ "The story~ Theodor~ Taraj~  2016              127    7.8
## # ... with 287 more rows, and 3 more variables: Votes <dbl>, `Revenue
## #   (Millions)` <dbl>, Metascore <dbl>
…
